…
# Read in data

``` r
# metadata
metadata <- 
  md_path %>% 
  read_excel() %>% 
  janitor::clean_names()

metadata
```

    ## # A tibble: 145 x 5
    ##    file_name                    plate_run patient_id timepoint mrd_risk
    ##    <chr>                        <chr>     <chr>      <chr>     <chr>   
    ##  1 Plate1_MRD_02_D8_blasts.fcs  Plate1    MRD_02     D8        IR      
    ##  2 Plate1_MRD_02_Dx_blasts.fcs  Plate1    MRD_02     Dx        IR      
    ##  3 Plate1_MRD_03_Dx_blasts.fcs  Plate1    MRD_03     Dx        SR      
    ##  4 Plate1_MRD_05_D15_blasts.fcs Plate1    MRD_05     D15       SR      
    ##  5 Plate1_MRD_05_Dx_blasts.fcs  Plate1    MRD_05     Dx        SR      
    ##  6 Plate2_MRD_06_D8_blasts.fcs  Plate2    MRD_06     D8        SR      
    ##  7 Plate2_MRD_06_Dx_blasts.fcs  Plate2    MRD_06     Dx        SR      
    ##  8 Plate2_MRD_09_D8_blasts.fcs  Plate2    MRD_09     D8        IR      
    ##  9 Plate2_MRD_09_D15_blasts.fcs Plate2    MRD_09     D15       IR      
    ## 10 Plate2_MRD_09_Dx_blasts.fcs  Plate2    MRD_09     Dx        IR      
    ## # … with 135 more rows
…
# Integrate single-cell and metadata

From here, we can annotate each cell with some variables from the
metadata table `md`.

``` r
all_data <- 
  all_data %>% 
  left_join(y = metadata, by = "file_name")

all_data
```

    ## # A tibble: 6,989,850 x 43
    ##     cd45 cparp  psrc  cd19  cd22 p4ebp1  cd73  cd66  cd20  cd34 cd179a pstat5
    ##    <dbl> <dbl> <dbl> <dbl> <dbl>  <dbl> <dbl> <dbl> <dbl> <dbl>  <dbl>  <dbl>
    ##  1  3.45 0.199 0.199  2.19 0.390  0.199 0.390 0.733 0.199 0.199   2.09  0.390
    ##  2  3.63 0.733 0.199  1.88 0.569  1.25  0.733 0.733 0.199 0.390   4.16  0.199
    ##  3  3.43 0.881 0.390  2.49 0.390  0.390 0.733 1.02  0.199 0.199   1.99  0.569
    ##  4  3.55 0.199 0.390  3.33 0.199  1.99  1.61  0.733 0.390 0.199   3.06  0.199
    ##  5  3.44 0.199 1.14   3.36 0.199  1.88  0.199 0.569 0.569 0.199   2.09  0.199
    ##  6  3.04 0.199 0.569  2.85 0.881  0.199 0.569 0.390 0.199 0.733   2.09  0.569
    ##  7  3.52 0.569 0.569  2.42 0.390  0.199 1.02  0.881 0.199 0.199   1.99  0.569
    ##  8  4.20 0.199 0.390  3.43 0.569  2.05  0.199 0.199 0.199 0.733   2.82  0.199
    ##  9  3.47 0.390 0.390  3.00 0.569  1.82  1.02  0.733 0.199 0.199   3.07  0.390
    ## 10  3.38 0.881 0.390  2.39 0.390  1.99  0.199 0.199 0.199 0.199   3.60  0.199
    ## # … with 6,989,840 more rows, and 31 more variables: gcr <dbl>, ki67 <dbl>,
    ## #   igmi <dbl>, cd123 <dbl>, pblnk <dbl>, cd10 <dbl>, pbtk <dbl>, cd179b <dbl>,
    ## #   pakt <dbl>, cd24 <dbl>, tslpr <dbl>, cd127 <dbl>, cd81 <dbl>, tdt <dbl>,
    ## #   pax5 <dbl>, cd13 <dbl>, cd43 <dbl>, cd38 <dbl>, cd304 <dbl>, cd3 <dbl>,
    ## #   psyk <dbl>, ps6 <dbl>, perk <dbl>, `hla-dr` <dbl>, igms <dbl>, pcreb <dbl>,
    ## #   file_name <chr>, plate_run <chr>, patient_id <chr>, timepoint <chr>,
    ## #   mrd_risk <chr>

We can also make one more data structure that will be useful later.

``` r
# create an easy lookup for which patients have which mrd risk
patient_risk <- 
  all_data %>% 
  select(patient_id, mrd_risk) %>% 
  distinct() %>% 
  drop_na()

patient_risk
```

    ## # A tibble: 48 x 2
    ##    patient_id mrd_risk
    ##    <chr>      <chr>   
    ##  1 MRD_02     IR      
    ##  2 MRD_03     SR      
    ##  3 MRD_05     SR      
    ##  4 MRD_37     IR      
    ##  5 MRD_38     SR      
    ##  6 MRD_41     HR      
    ##  7 MRD_40     SR      
    ##  8 MRD_42     HR      
    ##  9 MRD_43     IR      
    ## 10 MRD_45     IR      
    ## # … with 38 more rows
…
## Number of cells per patient

``` r
patient_cells <- 
  all_data %>% 
  count(patient_id, name = "num_cells") %>% 
  left_join(patient_risk, by = "patient_id") %>% 
  mutate(patient_id = fct_reorder(patient_id, -num_cells)) %>% 
  arrange(-num_cells)

patient_cells
```

    ## # A tibble: 47 x 3
    ##    patient_id num_cells mrd_risk
    ##    <fct>          <int> <chr>   
    ##  1 MRD_27        526176 HR      
    ##  2 MRD_01        468720 HR      
    ##  3 MRD_25        437168 HR      
    ##  4 MRD_02        388080 IR      
    ##  5 MRD_10        339321 HR      
    ##  6 MRD_41        315801 HR      
    ##  7 MRD_37        299615 IR      
    ##  8 MRD_44        275129 HR      
    ##  9 MRD_07        273734 IR      
    ## 10 MRD_09        270227 IR      
    ## # … with 37 more rows
…
## Number of cells per patient per timepoint

``` r
patient_timepoint_df <- 
  all_data %>% 
  count(patient_id, timepoint, name = "num_cells") %>% 
  left_join(patient_risk, by = "patient_id") %>% 
  mutate(timepoint = factor(timepoint, levels = timepoint_levels)) %>% 
  arrange(-num_cells)

patient_timepoint_df 
```

    ## # A tibble: 142 x 4
    ##    patient_id timepoint num_cells mrd_risk
    ##    <chr>      <fct>         <int> <chr>   
    ##  1 MRD_25     Dx           433040 HR      
    ##  2 MRD_27     Dx           362060 HR      
    ##  3 MRD_41     Dx           310558 HR      
    ##  4 MRD_02     Dx           309589 IR      
    ##  5 MRD_07     Dx           272305 IR      
    ##  6 MRD_09     Dx           249752 IR      
    ##  7 MRD_37     Dx           232293 IR      
    ##  8 MRD_44     Dx           221551 HR      
    ##  9 MRD_39     Dx           201346 SR      
    ## 10 MRD_10     Dx           199850 HR      
    ## # … with 132 more rows
…
